Id,Name,Description,Latest Price
9,RFK,lhjhrottlz,59.0000 EUR
11,QFX,aswivktuhd,54.0000 EUR
12,OXI,grvvevwuhr,70.0000 EUR
13,MTS,puhimtgefk,89.0000 EUR
14,MBA,fcsvsckrad,39.0000 EUR
15,QNI,isrysbtctf,75.0000 EUR
17,UTI,qaokbwjnuk,85.0000 EUR
20,JRU,ukatsoputz,0.0000 EUR
21,JSX,cfjpepvpwh,45.0000 EUR
22,OTT,kiiavwhxqs,60.0000 EUR
23,AHL,ugepsiuzjf,70.0000 EUR
24,WER,mnkiuizmst,15.0000 EUR
25,GJQ,aslscprtdh,85.0000 EUR
27,EFK,nadtiqwiea,51.0000 EUR
28,MCH,mzjpsmbvmy,79.0000 EUR
30,FHJ,agciidnwkp,86.0000 EUR
31,JIU,aojrdpmnlh,83.0000 EUR
32,CPV,ttcaorgwxf,78.0000 EUR
33,RHG,tdzxtgczqj,36.0000 EUR
35,IPR,aksnriqaap,12.0000 EUR
37,SDB,usfyjcpmys,0.0000 EUR
39,QDU,oumecchlxn,84.0000 EUR
40,LWD,pvdshecldm,65.0000 EUR
42,BQB,bsnestefdk,45.0000 EUR
43,VMC,rkkxjlokyf,30.0000 EUR
44,LFX,mhlacrjlrr,92.0000 EUR
45,FFR,imftcnkwkn,60.0000 EUR
46,KLU,wwmbpeqheo,66.0000 EUR
47,KCH,rnltxeffbq,69.0000 EUR
48,YJT,fdtfrubwxh,50.0000 EUR
49,KFO,aigewdfivt,21.0000 EUR
50,PGM,zvjabrtvqw,66.0000 EUR
51,UET,qaumputzpx,77.0000 EUR
52,AVZ,qqgmhjhgsj,46.0000 EUR
53,DBC,aoiteerinm,29.0000 EUR
54,IUR,liqmnviehx,55.0000 EUR
56,TTR,dpjpnodfps,18.0000 EUR
57,ZIK,vgreimmtdl,71.0000 EUR
58,ZLU,ybunlmfpiz,43.0000 EUR
60,FIO,zbiedqltan,32.0000 EUR
61,DZA,xquuadvxqk,34.0000 EUR
62,STU,nlhoeqswcn,17.0000 EUR
63,LQX,vumseawncf,89.0000 EUR
64,OXG,kjtcjizoog,49.0000 EUR
66,ZEJ,kxzxrlwhvy,58.0000 EUR
67,JDP,iwsliubxli,10.0000 EUR
69,KKF,siawposmfi,66.0000 EUR
70,MOW,tsvyxiojun,69.0000 EUR
71,DTT,auwzqvnvlq,21.0000 EUR
72,GQP,ggqexpytua,86.0000 EUR
73,KLE,cgjichvlkb,87.0000 EUR
74,API,hwtysobven,73.0000 EUR
75,NMW,hwivegoiyu,64.0000 EUR
76,JFZ,nqbjkxyosg,15.0000 EUR
77,PDV,wulbnghtfn,7.0000 EUR
78,FZY,lyhtsvfkuh,3.0000 EUR
79,LWK,rtnsjckbzs,26.0000 EUR
81,FQY,uixsqeiewx,28.0000 EUR
82,ZLM,xvedyqfvtj,50.0000 EUR
84,KUZ,zyaoaipaai,8.0000 EUR
87,ANT,pioiayadto,60.0000 EUR
88,FEI,vdqrauljhu,42.0000 EUR
89,RPV,ckbrwjdnsj,34.0000 EUR
90,HAW,txdbgrkytm,78.0000 EUR
91,FNP,sgqrzckpcc,36.0000 EUR
92,YVF,ogpvpbjlpj,28.0000 EUR
94,TEH,fiaufqwdww,11.0000 EUR
95,RMM,pjdmrqztnc,8.0000 EUR
99,KOX,lunzfxyppo,71.0000 EUR
100,PGV,bcwevwtojg,62.0000 EUR
101,DGU,flcqakxjdn,2.0000 EUR
102,DKJ,hdjncfkxog,82.0000 EUR
103,JNA,zxmjyzsdsw,42.0000 EUR
105,NOF,sirdcfxhgp,17.0000 EUR
106,IJG,alynfilslj,78.0000 EUR
107,WYY,telkonkmjs,69.0000 EUR
